{
    "root" : [
        {
            "verantwortlich" : "leroy",
            "partner_name" : "test",
            "tags" : "Request/InvoiceDetailRequest/InvoiceDetailRequestHeader",
            "unique_attribute" : "invoiceID",
            "compare_1" : "compare_1",
            "compare_2" : "compare_2"
        }
    ]
}
