{
	"StagingInputBasePaths": [
		"//path",
		"//path1"
	],
	"documents": [
		{
			"staging_input": "/path",
			"basePath": 0,
			"id": "00001_docID",
			"docTypes": [".xml", ".pdf"],
			"multi_cutomer_dir": "True",
			"multi_cutomer_dir_search_string": "<CompanyName>test1",
			"description": ""
		}
	]
}
